%!PS-Adobe-3.0 EPSF-3.0
%%Creator: MATLAB, The MathWorks, Inc. Version 8.3.0.532 (R2014a). Operating System: Linux 3.13.0-30-generic #54-Ubuntu SMP Mon Jun 9 22:45:01 UTC 2014 x86_64.
%%Title: /home/repptilia/EtienneFavreProject/project_presentation/matrix_structure.eps
%%CreationDate: 07/02/2014  15:51:20
%%DocumentNeededFonts: Helvetica
%%DocumentProcessColors: Cyan Magenta Yellow Black
%%LanguageLevel: 2
%%Pages: 1
%%BoundingBox:  -308    67   919   724
%%EndComments

%%BeginProlog
% MathWorks dictionary
/MathWorks 160 dict begin
% definition operators
/bdef {bind def} bind def
/ldef {load def} bind def
/xdef {exch def} bdef
/xstore {exch store} bdef
% operator abbreviations
/c  /clip ldef
/cc /concat ldef
/cp /closepath ldef
/gr /grestore ldef
/gs /gsave ldef
/mt /moveto ldef
/np /newpath ldef
/cm /currentmatrix ldef
/sm /setmatrix ldef
/rm /rmoveto ldef
/rl /rlineto ldef
/s {show newpath} bdef
/sc {setcmykcolor} bdef
/sr /setrgbcolor ldef
/sg /setgray ldef
/w /setlinewidth ldef
/j /setlinejoin ldef
/cap /setlinecap ldef
/rc {rectclip} bdef
/rf {rectfill} bdef
% page state control
/pgsv () def
/bpage {/pgsv save def} bdef
/epage {pgsv restore} bdef
/bplot /gsave ldef
/eplot {stroke grestore} bdef
% orientation switch
/portraitMode 0 def /landscapeMode 1 def /rotateMode 2 def
% coordinate system mappings
/dpi2point 0 def
% font control
/FontSize 0 def
/FMS {/FontSize xstore findfont [FontSize 0 0 FontSize neg 0 0]
  makefont setfont} bdef
/reencode {exch dup where {pop load} {pop StandardEncoding} ifelse
  exch dup 3 1 roll findfont dup length dict begin
  { 1 index /FID ne {def}{pop pop} ifelse } forall
  /Encoding exch def currentdict end definefont pop} bdef
/isroman {findfont /CharStrings get /Agrave known} bdef
/FMSR {3 1 roll 1 index dup isroman {reencode} {pop pop} ifelse
  exch FMS} bdef
/csm {1 dpi2point div -1 dpi2point div scale neg translate
 dup landscapeMode eq {pop -90 rotate}
  {rotateMode eq {90 rotate} if} ifelse} bdef
% line types: solid, dotted, dashed, dotdash
/SO { [] 0 setdash } bdef
/DO { [.5 dpi2point mul 4 dpi2point mul] 0 setdash } bdef
/DA { [6 dpi2point mul] 0 setdash } bdef
/DD { [.5 dpi2point mul 4 dpi2point mul 6 dpi2point mul 4
  dpi2point mul] 0 setdash } bdef
% macros for lines and objects
/L {lineto stroke} bdef
/MP {3 1 roll moveto 1 sub {rlineto} repeat} bdef
/AP {{rlineto} repeat} bdef
/PDlw -1 def
/W {/PDlw currentlinewidth def setlinewidth} def
/PP {closepath eofill} bdef
/DP {closepath stroke} bdef
/MR {4 -2 roll moveto dup  0 exch rlineto exch 0 rlineto
  neg 0 exch rlineto closepath} bdef
/FR {MR stroke} bdef
/PR {MR fill} bdef
/L1i {{currentfile picstr readhexstring pop} image} bdef
/tMatrix matrix def
/MakeOval {newpath tMatrix currentmatrix pop translate scale
0 0 1 0 360 arc tMatrix setmatrix} bdef
/FO {MakeOval stroke} bdef
/PO {MakeOval fill} bdef
/PD {currentlinewidth 2 div 0 360 arc fill
   PDlw -1 eq not {PDlw w /PDlw -1 def} if} def
/FA {newpath tMatrix currentmatrix pop translate scale
  0 0 1 5 -2 roll arc tMatrix setmatrix stroke} bdef
/PA {newpath tMatrix currentmatrix pop	translate 0 0 moveto scale
  0 0 1 5 -2 roll arc closepath tMatrix setmatrix fill} bdef
/FAn {newpath tMatrix currentmatrix pop translate scale
  0 0 1 5 -2 roll arcn tMatrix setmatrix stroke} bdef
/PAn {newpath tMatrix currentmatrix pop translate 0 0 moveto scale
  0 0 1 5 -2 roll arcn closepath tMatrix setmatrix fill} bdef
/vradius 0 def /hradius 0 def /lry 0 def
/lrx 0 def /uly 0 def /ulx 0 def /rad 0 def
/MRR {/vradius xdef /hradius xdef /lry xdef /lrx xdef /uly xdef
  /ulx xdef newpath tMatrix currentmatrix pop ulx hradius add uly
  vradius add translate hradius vradius scale 0 0 1 180 270 arc 
  tMatrix setmatrix lrx hradius sub uly vradius add translate
  hradius vradius scale 0 0 1 270 360 arc tMatrix setmatrix
  lrx hradius sub lry vradius sub translate hradius vradius scale
  0 0 1 0 90 arc tMatrix setmatrix ulx hradius add lry vradius sub
  translate hradius vradius scale 0 0 1 90 180 arc tMatrix setmatrix
  closepath} bdef
/FRR {MRR stroke } bdef
/PRR {MRR fill } bdef
/MlrRR {/lry xdef /lrx xdef /uly xdef /ulx xdef /rad lry uly sub 2 div def
  newpath tMatrix currentmatrix pop ulx rad add uly rad add translate
  rad rad scale 0 0 1 90 270 arc tMatrix setmatrix lrx rad sub lry rad
  sub translate rad rad scale 0 0 1 270 90 arc tMatrix setmatrix
  closepath} bdef
/FlrRR {MlrRR stroke } bdef
/PlrRR {MlrRR fill } bdef
/MtbRR {/lry xdef /lrx xdef /uly xdef /ulx xdef /rad lrx ulx sub 2 div def
  newpath tMatrix currentmatrix pop ulx rad add uly rad add translate
  rad rad scale 0 0 1 180 360 arc tMatrix setmatrix lrx rad sub lry rad
  sub translate rad rad scale 0 0 1 0 180 arc tMatrix setmatrix
  closepath} bdef
/FtbRR {MtbRR stroke } bdef
/PtbRR {MtbRR fill } bdef
/stri 6 array def /dtri 6 array def
/smat 6 array def /dmat 6 array def
/tmat1 6 array def /tmat2 6 array def /dif 3 array def
/asub {/ind2 exch def /ind1 exch def dup dup
  ind1 get exch ind2 get sub exch } bdef
/tri_to_matrix {
  2 0 asub 3 1 asub 4 0 asub 5 1 asub
  dup 0 get exch 1 get 7 -1 roll astore } bdef
/compute_transform {
  dmat dtri tri_to_matrix tmat1 invertmatrix 
  smat stri tri_to_matrix tmat2 concatmatrix } bdef
/ds {stri astore pop} bdef
/dt {dtri astore pop} bdef
/db {2 copy /cols xdef /rows xdef mul dup 3 mul string
  currentfile 
  3 index 0 eq {/ASCIIHexDecode filter}
  {/ASCII85Decode filter 3 index 2 eq {/RunLengthDecode filter} if }
  ifelse exch readstring pop
  dup 0 3 index getinterval /rbmap xdef
  dup 2 index dup getinterval /gbmap xdef
  1 index dup 2 mul exch getinterval /bbmap xdef pop pop}bdef
/it {gs np dtri aload pop moveto lineto lineto cp c
  cols rows 8 compute_transform 
  rbmap gbmap bbmap true 3 colorimage gr}bdef
/il {newpath moveto lineto stroke}bdef
currentdict end def
%%EndProlog

%%BeginSetup
MathWorks begin

0 cap

end
%%EndSetup

%%Page: 1 1
%%BeginPageSetup
%%PageBoundingBox:  -308    67   919   724
MathWorks begin
bpage
%%EndPageSetup

%%BeginObject: obj1
bplot

/dpi2point 12 def
portraitMode -3696 8688 csm

    0     0 14735  7882 rc
85 dict begin %Colortable dictionary
/c0 { 0.000000 0.000000 0.000000 sr} bdef
/c1 { 1.000000 1.000000 1.000000 sr} bdef
/c2 { 0.900000 0.000000 0.000000 sr} bdef
/c3 { 0.000000 0.820000 0.000000 sr} bdef
/c4 { 0.000000 0.000000 0.800000 sr} bdef
/c5 { 0.910000 0.820000 0.320000 sr} bdef
/c6 { 1.000000 0.260000 0.820000 sr} bdef
/c7 { 0.000000 0.820000 0.820000 sr} bdef
c0
1 j
1 sg
   0    0 14736 7883 rf
6 w
0 -6424 6424 0 0 6424 4413 591 4 MP
PP
-6424 0 0 -6424 6424 0 0 6424 4413 591 5 MP stroke
4 w
6 w
0 sg
4413  591 mt 10837  591 L
4413 7015 mt 10837 7015 L
4413  591 mt 4413 7015 L
10837  591 mt 10837 7015 L
4413 7015 mt 10837 7015 L
4413  591 mt 4413 7015 L
4413 7015 mt 4413 6950 L
4413  591 mt 4413  655 L
%%IncludeResource: font Helvetica
/Helvetica /ISOLatin1Encoding 120 FMSR

4380 7160 mt 
(0) s
5463 7015 mt 5463 6950 L
5463  591 mt 5463  655 L
5397 7160 mt 
(20) s
6514 7015 mt 6514 6950 L
6514  591 mt 6514  655 L
6448 7160 mt 
(40) s
7564 7015 mt 7564 6950 L
7564  591 mt 7564  655 L
7498 7160 mt 
(60) s
8615 7015 mt 8615 6950 L
8615  591 mt 8615  655 L
8549 7160 mt 
(80) s
9665 7015 mt 9665 6950 L
9665  591 mt 9665  655 L
9565 7160 mt 
(100) s
10715 7015 mt 10715 6950 L
10715  591 mt 10715  655 L
10615 7160 mt 
(120) s
4413  591 mt 4477  591 L
10837  591 mt 10773  591 L
4312  635 mt 
(0) s
4413 1610 mt 4477 1610 L
10837 1610 mt 10773 1610 L
4245 1654 mt 
(20) s
4413 2630 mt 4477 2630 L
10837 2630 mt 10773 2630 L
4245 2674 mt 
(40) s
4413 3650 mt 4477 3650 L
10837 3650 mt 10773 3650 L
4245 3694 mt 
(60) s
4413 4669 mt 4477 4669 L
10837 4669 mt 10773 4669 L
4245 4713 mt 
(80) s
4413 5689 mt 4477 5689 L
10837 5689 mt 10773 5689 L
4178 5733 mt 
(100) s
4413 6709 mt 4477 6709 L
10837 6709 mt 10773 6709 L
4178 6753 mt 
(120) s
4413  591 mt 10837  591 L
4413 7015 mt 10837 7015 L
4413  591 mt 4413 7015 L
10837  591 mt 10837 7015 L
gs 4413 591 6425 6425 rc
gr

52 W
/c8 { 0.000000 0.000000 1.000000 sr} bdef
c8
4466 641 PD
52 W
4466 692 PD
52 W
4466 896 PD
52 W
4466 1916 PD
52 W
4518 641 PD
52 W
4518 692 PD
52 W
4518 743 PD
52 W
4518 947 PD
52 W
4518 1967 PD
52 W
4571 692 PD
52 W
4571 743 PD
52 W
4571 794 PD
52 W
4571 998 PD
52 W
4571 2018 PD
52 W
4623 743 PD
52 W
4623 794 PD
52 W
4623 845 PD
52 W
4623 1049 PD
52 W
4623 2069 PD
52 W
4676 794 PD
52 W
4676 845 PD
52 W
4676 1100 PD
52 W
4676 2120 PD
52 W
4728 641 PD
52 W
4728 896 PD
52 W
4728 947 PD
52 W
4728 1151 PD
52 W
4728 2171 PD
52 W
4781 692 PD
52 W
4781 896 PD
52 W
4781 947 PD
52 W
4781 998 PD
52 W
4781 1202 PD
52 W
4781 2222 PD
52 W
4833 743 PD
52 W
4833 947 PD
52 W
4833 998 PD
52 W
4833 1049 PD
52 W
4833 1253 PD
52 W
4833 2273 PD
52 W
4886 794 PD
52 W
4886 998 PD
52 W
4886 1049 PD
52 W
4886 1100 PD
52 W
4886 1304 PD
52 W
4886 2324 PD
52 W
4938 845 PD
52 W
4938 1049 PD
52 W
4938 1100 PD
52 W
4938 1355 PD
52 W
4938 2375 PD
52 W
4991 896 PD
52 W
4991 1151 PD
52 W
4991 1202 PD
52 W
4991 1406 PD
52 W
4991 2426 PD
52 W
5043 947 PD
52 W
5043 1151 PD
52 W
5043 1202 PD
52 W
5043 1253 PD
52 W
5043 1457 PD
52 W
5043 2477 PD
52 W
5096 998 PD
52 W
5096 1202 PD
52 W
5096 1253 PD
52 W
5096 1304 PD
52 W
5096 1508 PD
52 W
5096 2528 PD
52 W
5148 1049 PD
52 W
5148 1253 PD
52 W
5148 1304 PD
52 W
5148 1355 PD
52 W
5148 1559 PD
52 W
5148 2579 PD
52 W
5201 1100 PD
52 W
5201 1304 PD
52 W
5201 1355 PD
52 W
5201 1610 PD
52 W
5201 2630 PD
52 W
5253 1151 PD
52 W
5253 1406 PD
52 W
5253 1457 PD
52 W
5253 1661 PD
52 W
5253 2681 PD
52 W
5306 1202 PD
52 W
5306 1406 PD
52 W
5306 1457 PD
52 W
5306 1508 PD
52 W
5306 1712 PD
52 W
5306 2732 PD
52 W
5358 1253 PD
52 W
5358 1457 PD
52 W
5358 1508 PD
52 W
5358 1559 PD
52 W
5358 1763 PD
52 W
5358 2783 PD
52 W
5411 1304 PD
52 W
5411 1508 PD
52 W
5411 1559 PD
52 W
5411 1610 PD
52 W
5411 1814 PD
52 W
5411 2834 PD
52 W
5463 1355 PD
52 W
5463 1559 PD
52 W
5463 1610 PD
52 W
5463 1865 PD
52 W
5463 2885 PD
52 W
5516 1406 PD
52 W
5516 1661 PD
52 W
5516 1712 PD
52 W
5516 2936 PD
52 W
5568 1457 PD
52 W
5568 1661 PD
52 W
5568 1712 PD
52 W
5568 1763 PD
52 W
5568 2987 PD
52 W
5621 1508 PD
52 W
5621 1712 PD
52 W
5621 1763 PD
52 W
5621 1814 PD
52 W
5621 3038 PD
52 W
5673 1559 PD
52 W
5673 1763 PD
52 W
5673 1814 PD
52 W
5673 1865 PD
52 W
5673 3089 PD
52 W
5726 1610 PD
52 W
5726 1814 PD
52 W
5726 1865 PD
52 W
5726 3140 PD
52 W
5779 641 PD
52 W
5779 1916 PD
52 W
5779 1967 PD
52 W
5779 2171 PD
52 W
5779 3191 PD
52 W
5831 692 PD
52 W
5831 1916 PD
52 W
5831 1967 PD
52 W
5831 2018 PD
52 W
5831 2222 PD
52 W
5831 3242 PD
52 W
5884 743 PD
52 W
5884 1967 PD
52 W
5884 2018 PD
52 W
5884 2069 PD
52 W
5884 2273 PD
52 W
5884 3293 PD
52 W
5936 794 PD
52 W
5936 2018 PD
52 W
5936 2069 PD
52 W
5936 2120 PD
52 W
5936 2324 PD
52 W
5936 3344 PD
52 W
5989 845 PD
52 W
5989 2069 PD
52 W
5989 2120 PD
52 W
5989 2375 PD
52 W
5989 3395 PD
52 W
6041 896 PD
52 W
6041 1916 PD
52 W
6041 2171 PD
52 W
6041 2222 PD
52 W
6041 2426 PD
52 W
6041 3446 PD
52 W
6094 947 PD
52 W
6094 1967 PD
52 W
6094 2171 PD
52 W
6094 2222 PD
52 W
6094 2273 PD
52 W
6094 2477 PD
52 W
6094 3497 PD
52 W
6146 998 PD
52 W
6146 2018 PD
52 W
6146 2222 PD
52 W
6146 2273 PD
52 W
6146 2324 PD
52 W
6146 2528 PD
52 W
6146 3548 PD
52 W
6199 1049 PD
52 W
6199 2069 PD
52 W
6199 2273 PD
52 W
6199 2324 PD
52 W
6199 2375 PD
52 W
6199 2579 PD
52 W
6199 3599 PD
52 W
6251 1100 PD
52 W
6251 2120 PD
52 W
6251 2324 PD
52 W
6251 2375 PD
52 W
6251 2630 PD
52 W
6251 3650 PD
52 W
6304 1151 PD
52 W
6304 2171 PD
52 W
6304 2426 PD
52 W
6304 2477 PD
52 W
6304 2681 PD
52 W
6304 3701 PD
52 W
6356 1202 PD
52 W
6356 2222 PD
52 W
6356 2426 PD
52 W
6356 2477 PD
52 W
6356 2528 PD
52 W
6356 2732 PD
52 W
6356 3752 PD
52 W
6409 1253 PD
52 W
6409 2273 PD
52 W
6409 2477 PD
52 W
6409 2528 PD
52 W
6409 2579 PD
52 W
6409 2783 PD
52 W
6409 3803 PD
52 W
6461 1304 PD
52 W
6461 2324 PD
52 W
6461 2528 PD
52 W
6461 2579 PD
52 W
6461 2630 PD
52 W
6461 2834 PD
52 W
6461 3853 PD
52 W
6514 1355 PD
52 W
6514 2375 PD
52 W
6514 2579 PD
52 W
6514 2630 PD
52 W
6514 2885 PD
52 W
6514 3904 PD
52 W
6566 1406 PD
52 W
6566 2426 PD
52 W
6566 2681 PD
52 W
6566 2732 PD
52 W
6566 2936 PD
52 W
6566 3955 PD
52 W
6619 1457 PD
52 W
6619 2477 PD
52 W
6619 2681 PD
52 W
6619 2732 PD
52 W
6619 2783 PD
52 W
6619 2987 PD
52 W
6619 4006 PD
52 W
6671 1508 PD
52 W
6671 2528 PD
52 W
6671 2732 PD
52 W
6671 2783 PD
52 W
6671 2834 PD
52 W
6671 3038 PD
52 W
6671 4057 PD
52 W
6724 1559 PD
52 W
6724 2579 PD
52 W
6724 2783 PD
52 W
6724 2834 PD
52 W
6724 2885 PD
52 W
6724 3089 PD
52 W
6724 4108 PD
52 W
6776 1610 PD
52 W
6776 2630 PD
52 W
6776 2834 PD
52 W
6776 2885 PD
52 W
6776 3140 PD
52 W
6776 4159 PD
52 W
6829 1661 PD
52 W
6829 2681 PD
52 W
6829 2936 PD
52 W
6829 2987 PD
52 W
6829 4210 PD
52 W
6881 1712 PD
52 W
6881 2732 PD
52 W
6881 2936 PD
52 W
6881 2987 PD
52 W
6881 3038 PD
52 W
6881 4261 PD
52 W
6934 1763 PD
52 W
6934 2783 PD
52 W
6934 2987 PD
52 W
6934 3038 PD
52 W
6934 3089 PD
52 W
6934 4312 PD
52 W
6986 1814 PD
52 W
6986 2834 PD
52 W
6986 3038 PD
52 W
6986 3089 PD
52 W
6986 3140 PD
52 W
6986 4363 PD
52 W
7039 1865 PD
52 W
7039 2885 PD
52 W
7039 3089 PD
52 W
7039 3140 PD
52 W
7039 4414 PD
52 W
7092 1916 PD
52 W
7092 3191 PD
52 W
7092 3242 PD
52 W
7092 3446 PD
52 W
7092 4465 PD
52 W
7144 1967 PD
52 W
7144 3191 PD
52 W
7144 3242 PD
52 W
7144 3293 PD
52 W
7144 3497 PD
52 W
7144 4516 PD
52 W
7197 2018 PD
52 W
7197 3242 PD
52 W
7197 3293 PD
52 W
7197 3344 PD
52 W
7197 3548 PD
52 W
7197 4567 PD
52 W
7249 2069 PD
52 W
7249 3293 PD
52 W
7249 3344 PD
52 W
7249 3395 PD
52 W
7249 3599 PD
52 W
7249 4618 PD
52 W
7302 2120 PD
52 W
7302 3344 PD
52 W
7302 3395 PD
52 W
7302 3650 PD
52 W
7302 4669 PD
52 W
7354 2171 PD
52 W
7354 3191 PD
52 W
7354 3446 PD
52 W
7354 3497 PD
52 W
7354 3701 PD
52 W
7354 4720 PD
52 W
7407 2222 PD
52 W
7407 3242 PD
52 W
7407 3446 PD
52 W
7407 3497 PD
52 W
7407 3548 PD
52 W
7407 3752 PD
52 W
7407 4771 PD
52 W
7459 2273 PD
52 W
7459 3293 PD
52 W
7459 3497 PD
52 W
7459 3548 PD
52 W
7459 3599 PD
52 W
7459 3803 PD
52 W
7459 4822 PD
52 W
7512 2324 PD
52 W
7512 3344 PD
52 W
7512 3548 PD
52 W
7512 3599 PD
52 W
7512 3650 PD
52 W
7512 3853 PD
52 W
7512 4873 PD
52 W
7564 2375 PD
52 W
7564 3395 PD
52 W
7564 3599 PD
52 W
7564 3650 PD
52 W
7564 3904 PD
52 W
7564 4924 PD
52 W
7617 2426 PD
52 W
7617 3446 PD
52 W
7617 3701 PD
52 W
7617 3752 PD
52 W
7617 3955 PD
52 W
7617 4975 PD
52 W
7669 2477 PD
52 W
7669 3497 PD
52 W
7669 3701 PD
52 W
7669 3752 PD
52 W
7669 3803 PD
52 W
7669 4006 PD
52 W
7669 5026 PD
52 W
7722 2528 PD
52 W
7722 3548 PD
52 W
7722 3752 PD
52 W
7722 3803 PD
52 W
7722 3853 PD
52 W
7722 4057 PD
52 W
7722 5077 PD
52 W
7774 2579 PD
52 W
7774 3599 PD
52 W
7774 3803 PD
52 W
7774 3853 PD
52 W
7774 3904 PD
52 W
7774 4108 PD
52 W
7774 5128 PD
52 W
7827 2630 PD
52 W
7827 3650 PD
52 W
7827 3853 PD
52 W
7827 3904 PD
52 W
7827 4159 PD
52 W
7827 5179 PD
52 W
7879 2681 PD
52 W
7879 3701 PD
52 W
7879 3955 PD
52 W
7879 4006 PD
52 W
7879 4210 PD
52 W
7879 5230 PD
52 W
7932 2732 PD
52 W
7932 3752 PD
52 W
7932 3955 PD
52 W
7932 4006 PD
52 W
7932 4057 PD
52 W
7932 4261 PD
52 W
7932 5281 PD
52 W
7984 2783 PD
52 W
7984 3803 PD
52 W
7984 4006 PD
52 W
7984 4057 PD
52 W
7984 4108 PD
52 W
7984 4312 PD
52 W
7984 5332 PD
52 W
8037 2834 PD
52 W
8037 3853 PD
52 W
8037 4057 PD
52 W
8037 4108 PD
52 W
8037 4159 PD
52 W
8037 4363 PD
52 W
8037 5383 PD
52 W
8089 2885 PD
52 W
8089 3904 PD
52 W
8089 4108 PD
52 W
8089 4159 PD
52 W
8089 4414 PD
52 W
8089 5434 PD
52 W
8142 2936 PD
52 W
8142 3955 PD
52 W
8142 4210 PD
52 W
8142 4261 PD
52 W
8142 5485 PD
52 W
8194 2987 PD
52 W
8194 4006 PD
52 W
8194 4210 PD
52 W
8194 4261 PD
52 W
8194 4312 PD
52 W
8194 5536 PD
52 W
8247 3038 PD
52 W
8247 4057 PD
52 W
8247 4261 PD
52 W
8247 4312 PD
52 W
8247 4363 PD
52 W
8247 5587 PD
52 W
8299 3089 PD
52 W
8299 4108 PD
52 W
8299 4312 PD
52 W
8299 4363 PD
52 W
8299 4414 PD
52 W
8299 5638 PD
52 W
8352 3140 PD
52 W
8352 4159 PD
52 W
8352 4363 PD
52 W
8352 4414 PD
52 W
8352 5689 PD
52 W
8405 3191 PD
52 W
8405 4465 PD
52 W
8405 4516 PD
52 W
8405 4720 PD
52 W
8405 5740 PD
52 W
8457 3242 PD
52 W
8457 4465 PD
52 W
8457 4516 PD
52 W
8457 4567 PD
52 W
8457 4771 PD
52 W
8457 5791 PD
52 W
8510 3293 PD
52 W
8510 4516 PD
52 W
8510 4567 PD
52 W
8510 4618 PD
52 W
8510 4822 PD
52 W
8510 5842 PD
52 W
8562 3344 PD
52 W
8562 4567 PD
52 W
8562 4618 PD
52 W
8562 4669 PD
52 W
8562 4873 PD
52 W
8562 5893 PD
52 W
8615 3395 PD
52 W
8615 4618 PD
52 W
8615 4669 PD
52 W
8615 4924 PD
52 W
8615 5944 PD
52 W
8667 3446 PD
52 W
8667 4465 PD
52 W
8667 4720 PD
52 W
8667 4771 PD
52 W
8667 4975 PD
52 W
8667 5995 PD
52 W
8720 3497 PD
52 W
8720 4516 PD
52 W
8720 4720 PD
52 W
8720 4771 PD
52 W
8720 4822 PD
52 W
8720 5026 PD
52 W
8720 6046 PD
52 W
8772 3548 PD
52 W
8772 4567 PD
52 W
8772 4771 PD
52 W
8772 4822 PD
52 W
8772 4873 PD
52 W
8772 5077 PD
52 W
8772 6097 PD
52 W
8825 3599 PD
52 W
8825 4618 PD
52 W
8825 4822 PD
52 W
8825 4873 PD
52 W
8825 4924 PD
52 W
8825 5128 PD
52 W
8825 6148 PD
52 W
8877 3650 PD
52 W
8877 4669 PD
52 W
8877 4873 PD
52 W
8877 4924 PD
52 W
8877 5179 PD
52 W
8877 6199 PD
52 W
8930 3701 PD
52 W
8930 4720 PD
52 W
8930 4975 PD
52 W
8930 5026 PD
52 W
8930 5230 PD
52 W
8930 6250 PD
52 W
8982 3752 PD
52 W
8982 4771 PD
52 W
8982 4975 PD
52 W
8982 5026 PD
52 W
8982 5077 PD
52 W
8982 5281 PD
52 W
8982 6301 PD
52 W
9035 3803 PD
52 W
9035 4822 PD
52 W
9035 5026 PD
52 W
9035 5077 PD
52 W
9035 5128 PD
52 W
9035 5332 PD
52 W
9035 6352 PD
52 W
9087 3853 PD
52 W
9087 4873 PD
52 W
9087 5077 PD
52 W
9087 5128 PD
52 W
9087 5179 PD
52 W
9087 5383 PD
52 W
9087 6403 PD
52 W
9140 3904 PD
52 W
9140 4924 PD
52 W
9140 5128 PD
52 W
9140 5179 PD
52 W
9140 5434 PD
52 W
9140 6454 PD
52 W
9192 3955 PD
52 W
9192 4975 PD
52 W
9192 5230 PD
52 W
9192 5281 PD
52 W
9192 5485 PD
52 W
9192 6505 PD
52 W
9245 4006 PD
52 W
9245 5026 PD
52 W
9245 5230 PD
52 W
9245 5281 PD
52 W
9245 5332 PD
52 W
9245 5536 PD
52 W
9245 6556 PD
52 W
9297 4057 PD
52 W
9297 5077 PD
52 W
9297 5281 PD
52 W
9297 5332 PD
52 W
9297 5383 PD
52 W
9297 5587 PD
52 W
9297 6607 PD
52 W
9350 4108 PD
52 W
9350 5128 PD
52 W
9350 5332 PD
52 W
9350 5383 PD
52 W
9350 5434 PD
52 W
9350 5638 PD
52 W
9350 6658 PD
52 W
9402 4159 PD
52 W
9402 5179 PD
52 W
9402 5383 PD
52 W
9402 5434 PD
52 W
9402 5689 PD
52 W
9402 6709 PD
52 W
9455 4210 PD
52 W
9455 5230 PD
52 W
9455 5485 PD
52 W
9455 5536 PD
52 W
9455 6760 PD
52 W
9507 4261 PD
52 W
9507 5281 PD
52 W
9507 5485 PD
52 W
9507 5536 PD
52 W
9507 5587 PD
52 W
9507 6811 PD
52 W
9560 4312 PD
52 W
9560 5332 PD
52 W
9560 5536 PD
52 W
9560 5587 PD
52 W
9560 5638 PD
52 W
9560 6862 PD
52 W
9612 4363 PD
52 W
9612 5383 PD
52 W
9612 5587 PD
52 W
9612 5638 PD
52 W
9612 5689 PD
52 W
9612 6913 PD
52 W
9665 4414 PD
52 W
9665 5434 PD
52 W
9665 5638 PD
52 W
9665 5689 PD
52 W
9665 6964 PD
52 W
9717 4465 PD
52 W
9717 5740 PD
52 W
9717 5791 PD
52 W
9717 5995 PD
52 W
9770 4516 PD
52 W
9770 5740 PD
52 W
9770 5791 PD
52 W
9770 5842 PD
52 W
9770 6046 PD
52 W
9823 4567 PD
52 W
9823 5791 PD
52 W
9823 5842 PD
52 W
9823 5893 PD
52 W
9823 6097 PD
52 W
9875 4618 PD
52 W
9875 5842 PD
52 W
9875 5893 PD
52 W
9875 5944 PD
52 W
9875 6148 PD
52 W
9928 4669 PD
52 W
9928 5893 PD
52 W
9928 5944 PD
52 W
9928 6199 PD
52 W
9980 4720 PD
52 W
9980 5740 PD
52 W
9980 5995 PD
52 W
9980 6046 PD
52 W
9980 6250 PD
52 W
10033 4771 PD
52 W
10033 5791 PD
52 W
10033 5995 PD
52 W
10033 6046 PD
52 W
10033 6097 PD
52 W
10033 6301 PD
52 W
10085 4822 PD
52 W
10085 5842 PD
52 W
10085 6046 PD
52 W
10085 6097 PD
52 W
10085 6148 PD
52 W
10085 6352 PD
52 W
10138 4873 PD
52 W
10138 5893 PD
52 W
10138 6097 PD
52 W
10138 6148 PD
52 W
10138 6199 PD
52 W
10138 6403 PD
52 W
10190 4924 PD
52 W
10190 5944 PD
52 W
10190 6148 PD
52 W
10190 6199 PD
52 W
10190 6454 PD
52 W
10243 4975 PD
52 W
10243 5995 PD
52 W
10243 6250 PD
52 W
10243 6301 PD
52 W
10243 6505 PD
52 W
10295 5026 PD
52 W
10295 6046 PD
52 W
10295 6250 PD
52 W
10295 6301 PD
52 W
10295 6352 PD
52 W
10295 6556 PD
52 W
10348 5077 PD
52 W
10348 6097 PD
52 W
10348 6301 PD
52 W
10348 6352 PD
52 W
10348 6403 PD
52 W
10348 6607 PD
52 W
10400 5128 PD
52 W
10400 6148 PD
52 W
10400 6352 PD
52 W
10400 6403 PD
52 W
10400 6454 PD
52 W
10400 6658 PD
52 W
10453 5179 PD
52 W
10453 6199 PD
52 W
10453 6403 PD
52 W
10453 6454 PD
52 W
10453 6709 PD
52 W
10505 5230 PD
52 W
10505 6250 PD
52 W
10505 6505 PD
52 W
10505 6556 PD
52 W
10505 6760 PD
52 W
10558 5281 PD
52 W
10558 6301 PD
52 W
10558 6505 PD
52 W
10558 6556 PD
52 W
10558 6607 PD
52 W
10558 6811 PD
52 W
10610 5332 PD
52 W
10610 6352 PD
52 W
10610 6556 PD
52 W
10610 6607 PD
52 W
10610 6658 PD
52 W
10610 6862 PD
52 W
10663 5383 PD
52 W
10663 6403 PD
52 W
10663 6607 PD
52 W
10663 6658 PD
52 W
10663 6709 PD
52 W
10663 6913 PD
52 W
10715 5434 PD
52 W
10715 6454 PD
52 W
10715 6658 PD
52 W
10715 6709 PD
52 W
10715 6964 PD
52 W
10768 5485 PD
52 W
10768 6505 PD
52 W
10768 6760 PD
52 W
10768 6811 PD
52 W
10820 5536 PD
52 W
10820 6556 PD
52 W
10820 6760 PD
52 W
10820 6811 PD
52 W
10820 6862 PD
gs 4413 591 6425 6425 rc
gr

0 sg
7392 7303 mt 
(nz = 725) s

end %%Color Dict

eplot
%%EndObject

epage
end

showpage

%%Trailer
%%EOF
