1	0.901		0.40		1
2	1.67		0.68		1.99
3	3.22		0.9012		2.98
4	3.2		1.345		3.97
5	4.3		1.50224		4.96
6	4.722		1.5145		5.95
7	5.9423		1.151		6.94
8	7.157		1.1248		7.93
9	7.50		1.245		8.92
10	10.03		NA		9.91
11	11.41		NA		10.9
12	10.6321		NA		11.89
