\relax 
\select@language{english}
\@writefile{toc}{\select@language{english}}
\@writefile{lof}{\select@language{english}}
\@writefile{lot}{\select@language{english}}
\@writefile{toc}{\contentsline {section}{\numberline {1}Problem definition}{1}}
\@writefile{toc}{\contentsline {subsection}{\numberline {1.1}Jacobi method}{2}}
\@writefile{toc}{\contentsline {subsubsection}{\numberline {1.1.1}Convergence}{2}}
\citation{convExp}
\@writefile{toc}{\contentsline {subsection}{\numberline {1.2}Conjugate Gradient method}{3}}
\@writefile{toc}{\contentsline {subsubsection}{\numberline {1.2.1}Convergence}{3}}
\@writefile{toc}{\contentsline {section}{\numberline {2}Parallelization}{3}}
\@writefile{toc}{\contentsline {subsection}{\numberline {2.1}MPI}{4}}
\@writefile{lof}{\contentsline {figure}{\numberline {1}{\ignorespaces Data sending/receiving throuh non-blocking communications.}}{4}}
\newlabel{MPIicomm}{{1}{4}}
\newlabel{fMPIcomm}{{2.1}{5}}
\@writefile{lof}{\contentsline {figure}{\numberline {2}{\ignorespaces $2$D grid schematics of MPI memory sharing. The vertices represent the computation points}}{5}}
\@writefile{lof}{\contentsline {figure}{\numberline {3}{\ignorespaces Computing a global coefficient. Here, in conjugate gradient algorithm, the reduction of $p\cdot Ap$, to compute $\alpha ^{(k)}$.}}{5}}
\newlabel{MPIicomm2}{{3}{5}}
\@writefile{toc}{\contentsline {subsection}{\numberline {2.2}pthreads}{5}}
\@writefile{lof}{\contentsline {figure}{\numberline {4}{\ignorespaces Use of condition variables to block threads. Here, m\_blockThreads is set to true until the data from boundaries has been exchanged with MPI.}}{5}}
\newlabel{pthreadCondVar}{{4}{5}}
\@writefile{lof}{\contentsline {figure}{\numberline {5}{\ignorespaces Static thread function called in the pthreads.}}{6}}
\newlabel{pthreadTrick}{{5}{6}}
\@writefile{toc}{\contentsline {subsection}{\numberline {2.3}CUDA}{6}}
\@writefile{toc}{\contentsline {section}{\numberline {3}Performance analysis}{6}}
\@writefile{lof}{\contentsline {figure}{\numberline {6}{\ignorespaces Reduction of an array in shared memory, using geometry of the block to reduce synchronizations.}}{7}}
\newlabel{cudaKernel1}{{6}{7}}
\@writefile{toc}{\contentsline {section}{\numberline {4}Results}{7}}
\@writefile{lof}{\contentsline {figure}{\numberline {7}{\ignorespaces Evolution of compute time for a problem of size $N=200$ using CG method.}}{8}}
\newlabel{fig:cg_single}{{7}{8}}
\@writefile{lof}{\contentsline {figure}{\numberline {8}{\ignorespaces Evolution of compute time for a problem of increasing size.}}{8}}
\newlabel{fig:cg_increasing}{{8}{8}}
\bibcite{wikiCG}{1}
\bibcite{convExp}{2}
\@writefile{lof}{\contentsline {figure}{\numberline {9}{\ignorespaces Evolution of compute time for the mixed solver poisson\_mpit, with fixed size $N=200$.}}{9}}
\newlabel{fig:cg_mixed}{{9}{9}}
\@writefile{toc}{\contentsline {section}{\numberline {5}Conclusion}{9}}
